{
  "$schema": "https://vega.github.io/schema/vega-lite/v5.json",
  "title": {
    "text": "Average housing price per city district",
    "subtitle": "source: O&S"
  },
  "width": 500,
  "height": 350,
  "data": {
    "values": [
      {
        "jaar": 2021,
        "gebiedcode15": "A",
        "variabele": "WWOZ_GEM",
        "waarde": 567320,
        "naam": "Centrum"
      },
      {
        "jaar": 2021,
        "gebiedcode15": "E",
        "variabele": "WWOZ_GEM",
        "waarde": 419504,
        "naam": "West"
      },
      {
        "jaar": 2021,
        "gebiedcode15": "F",
        "variabele": "WWOZ_GEM",
        "waarde": 318455,
        "naam": "Nieuw-West"
      },
      {
        "jaar": 2021,
        "gebiedcode15": "K",
        "variabele": "WWOZ_GEM",
        "waarde": 563492,
        "naam": "Zuid"
      },
      {
        "jaar": 2021,
        "gebiedcode15": "M",
        "variabele": "WWOZ_GEM",
        "waarde": 443628,
        "naam": "Oost"
      },
      {
        "jaar": 2021,
        "gebiedcode15": "N",
        "variabele": "WWOZ_GEM",
        "waarde": 334606,
        "naam": "Noord"
      },
      {
        "jaar": 2021,
        "gebiedcode15": "T",
        "variabele": "WWOZ_GEM",
        "waarde": 242406,
        "naam": "Zuidoost"
      },
      {
        "jaar": 2020,
        "gebiedcode15": "A",
        "variabele": "WWOZ_GEM",
        "waarde": 557000,
        "naam": "Centrum"
      },
      {
        "jaar": 2020,
        "gebiedcode15": "E",
        "variabele": "WWOZ_GEM",
        "waarde": 412499,
        "naam": "West"
      },
      {
        "jaar": 2020,
        "gebiedcode15": "F",
        "variabele": "WWOZ_GEM",
        "waarde": 310526,
        "naam": "Nieuw-West"
      },
      {
        "jaar": 2020,
        "gebiedcode15": "K",
        "variabele": "WWOZ_GEM",
        "waarde": 564493,
        "naam": "Zuid"
      },
      {
        "jaar": 2020,
        "gebiedcode15": "M",
        "variabele": "WWOZ_GEM",
        "waarde": 432512,
        "naam": "Oost"
      },
      {
        "jaar": 2020,
        "gebiedcode15": "N",
        "variabele": "WWOZ_GEM",
        "waarde": 332129,
        "naam": "Noord"
      },
      {
        "jaar": 2020,
        "gebiedcode15": "T",
        "variabele": "WWOZ_GEM",
        "waarde": 237007,
        "naam": "Zuidoost"
      },
      {
        "jaar": 2019,
        "gebiedcode15": "A",
        "variabele": "WWOZ_GEM",
        "waarde": 510020,
        "naam": "Centrum"
      },
      {
        "jaar": 2019,
        "gebiedcode15": "E",
        "variabele": "WWOZ_GEM",
        "waarde": 369311,
        "naam": "West"
      },
      {
        "jaar": 2019,
        "gebiedcode15": "F",
        "variabele": "WWOZ_GEM",
        "waarde": 270023,
        "naam": "Nieuw-West"
      },
      {
        "jaar": 2019,
        "gebiedcode15": "K",
        "variabele": "WWOZ_GEM",
        "waarde": 519262,
        "naam": "Zuid"
      },
      {
        "jaar": 2019,
        "gebiedcode15": "M",
        "variabele": "WWOZ_GEM",
        "waarde": 399322,
        "naam": "Oost"
      },
      {
        "jaar": 2019,
        "gebiedcode15": "N",
        "variabele": "WWOZ_GEM",
        "waarde": 279152,
        "naam": "Noord"
      },
      {
        "jaar": 2019,
        "gebiedcode15": "T",
        "variabele": "WWOZ_GEM",
        "waarde": 202708,
        "naam": "Zuidoost"
      },
      {
        "jaar": 2018,
        "gebiedcode15": "A",
        "variabele": "WWOZ_GEM",
        "waarde": 468861,
        "naam": "Centrum"
      },
      {
        "jaar": 2018,
        "gebiedcode15": "E",
        "variabele": "WWOZ_GEM",
        "waarde": 337770,
        "naam": "West"
      },
      {
        "jaar": 2018,
        "gebiedcode15": "F",
        "variabele": "WWOZ_GEM",
        "waarde": 237257,
        "naam": "Nieuw-West"
      },
      {
        "jaar": 2018,
        "gebiedcode15": "K",
        "variabele": "WWOZ_GEM",
        "waarde": 470831,
        "naam": "Zuid"
      },
      {
        "jaar": 2018,
        "gebiedcode15": "M",
        "variabele": "WWOZ_GEM",
        "waarde": 354958,
        "naam": "Oost"
      },
      {
        "jaar": 2018,
        "gebiedcode15": "N",
        "variabele": "WWOZ_GEM",
        "waarde": 244320,
        "naam": "Noord"
      },
      {
        "jaar": 2018,
        "gebiedcode15": "T",
        "variabele": "WWOZ_GEM",
        "waarde": 175408,
        "naam": "Zuidoost"
      },
      {
        "jaar": 2017,
        "gebiedcode15": "A",
        "variabele": "WWOZ_GEM",
        "waarde": 410171,
        "naam": "Centrum"
      },
      {
        "jaar": 2017,
        "gebiedcode15": "E",
        "variabele": "WWOZ_GEM",
        "waarde": 280953,
        "naam": "West"
      },
      {
        "jaar": 2017,
        "gebiedcode15": "F",
        "variabele": "WWOZ_GEM",
        "waarde": 207817,
        "naam": "Nieuw-West"
      },
      {
        "jaar": 2017,
        "gebiedcode15": "K",
        "variabele": "WWOZ_GEM",
        "waarde": 401192,
        "naam": "Zuid"
      },
      {
        "jaar": 2017,
        "gebiedcode15": "M",
        "variabele": "WWOZ_GEM",
        "waarde": 303507,
        "naam": "Oost"
      },
      {
        "jaar": 2017,
        "gebiedcode15": "N",
        "variabele": "WWOZ_GEM",
        "waarde": 209959,
        "naam": "Noord"
      },
      {
        "jaar": 2017,
        "gebiedcode15": "T",
        "variabele": "WWOZ_GEM",
        "waarde": 152461,
        "naam": "Zuidoost"
      },
      {
        "jaar": 2016,
        "gebiedcode15": "A",
        "variabele": "WWOZ_GEM",
        "waarde": 354108,
        "naam": "Centrum"
      },
      {
        "jaar": 2016,
        "gebiedcode15": "B",
        "variabele": "WWOZ_GEM",
        "waarde": 224491,
        "naam": "Westpoort"
      },
      {
        "jaar": 2016,
        "gebiedcode15": "E",
        "variabele": "WWOZ_GEM",
        "waarde": 238203,
        "naam": "West"
      },
      {
        "jaar": 2016,
        "gebiedcode15": "F",
        "variabele": "WWOZ_GEM",
        "waarde": 190530,
        "naam": "Nieuw-West"
      },
      {
        "jaar": 2016,
        "gebiedcode15": "K",
        "variabele": "WWOZ_GEM",
        "waarde": 340651,
        "naam": "Zuid"
      },
      {
        "jaar": 2016,
        "gebiedcode15": "M",
        "variabele": "WWOZ_GEM",
        "waarde": 257607,
        "naam": "Oost"
      },
      {
        "jaar": 2016,
        "gebiedcode15": "N",
        "variabele": "WWOZ_GEM",
        "waarde": 187664,
        "naam": "Noord"
      },
      {
        "jaar": 2016,
        "gebiedcode15": "T",
        "variabele": "WWOZ_GEM",
        "waarde": 142983,
        "naam": "Zuidoost"
      },
      {
        "jaar": 2015,
        "gebiedcode15": "A",
        "variabele": "WWOZ_GEM",
        "waarde": 323868,
        "naam": "Centrum"
      },
      {
        "jaar": 2015,
        "gebiedcode15": "B",
        "variabele": "WWOZ_GEM",
        "waarde": 189402,
        "naam": "Westpoort"
      },
      {
        "jaar": 2015,
        "gebiedcode15": "E",
        "variabele": "WWOZ_GEM",
        "waarde": 218716,
        "naam": "West"
      },
      {
        "jaar": 2015,
        "gebiedcode15": "F",
        "variabele": "WWOZ_GEM",
        "waarde": 186133,
        "naam": "Nieuw-West"
      },
      {
        "jaar": 2015,
        "gebiedcode15": "K",
        "variabele": "WWOZ_GEM",
        "waarde": 315385,
        "naam": "Zuid"
      },
      {
        "jaar": 2015,
        "gebiedcode15": "M",
        "variabele": "WWOZ_GEM",
        "waarde": 244580,
        "naam": "Oost"
      },
      {
        "jaar": 2015,
        "gebiedcode15": "N",
        "variabele": "WWOZ_GEM",
        "waarde": 182635,
        "naam": "Noord"
      },
      {
        "jaar": 2015,
        "gebiedcode15": "T",
        "variabele": "WWOZ_GEM",
        "waarde": 141548,
        "naam": "Zuidoost"
      },
      {
        "jaar": 2014,
        "gebiedcode15": "A",
        "variabele": "WWOZ_GEM",
        "waarde": 312164,
        "naam": "Centrum"
      },
      {
        "jaar": 2014,
        "gebiedcode15": "B",
        "variabele": "WWOZ_GEM",
        "waarde": 191007,
        "naam": "Westpoort"
      },
      {
        "jaar": 2014,
        "gebiedcode15": "E",
        "variabele": "WWOZ_GEM",
        "waarde": 215591,
        "naam": "West"
      },
      {
        "jaar": 2014,
        "gebiedcode15": "F",
        "variabele": "WWOZ_GEM",
        "waarde": 185476,
        "naam": "Nieuw-West"
      },
      {
        "jaar": 2014,
        "gebiedcode15": "K",
        "variabele": "WWOZ_GEM",
        "waarde": 310739,
        "naam": "Zuid"
      },
      {
        "jaar": 2014,
        "gebiedcode15": "M",
        "variabele": "WWOZ_GEM",
        "waarde": 239417,
        "naam": "Oost"
      },
      {
        "jaar": 2014,
        "gebiedcode15": "N",
        "variabele": "WWOZ_GEM",
        "waarde": 179149,
        "naam": "Noord"
      },
      {
        "jaar": 2014,
        "gebiedcode15": "T",
        "variabele": "WWOZ_GEM",
        "waarde": 144742,
        "naam": "Zuidoost"
      }
    ],
    "format": {
      "parse": {"jaar": "date:%Y", "waarde": "number", "gebiedcode15": "string"}
    }
  },
  "transform": [
    {
      "filter": {
        "field": "gebiedcode15",
        "oneOf": ["A", "B", "E", "F", "K", "M", "N", "T"]
      }
    }
  ],
  "encoding": {
    "x": {
      "timeUnit": "year",
      "field": "jaar",
      "type": "temporal",
      "axis": {
        "values": [2014, 2019, 2021],
        "ticks": false,
        "domain": false,
        "grid": false
      }
    }
  },
  "layer": [
    {
      "mark": {"type": "line", "point": false, "interpolate": "monotone"},
      "selection": {
        "gebiedcode15": {
          "type": "multi",
          "fields": ["gebiedcode15"],
          "bind": "legend",
          "init": [{"gebiedcode15": ["T", "M", "A"]}]
        }
      },
      "encoding": {
        "y": {"field": "waarde", "type": "quantitative"},
        "color": {
          "field": "gebiedcode15",
          "type": "nominal",
          "scale": {
            "domain": ["A", "B", "E", "F", "K", "M", "N", "T"],
            "range": [
              "#004699",
              "#00A03C",
              "#009DEC",
              "#BED200",
              "#FF9100",
              "#E50082",
              "#A00078",
              "#EC0000",
              "#FFE600"
            ]
          },
          "legend": {
            "title": "city districts",
            "symbolStrokeWidth": 3,
            "labelExpr": "datum.label == 'A' ? 'Centrum' : datum.label == 'B' ? 'Westpoort' : datum.label == 'E' ? 'West': datum.label == 'F' ? 'Nieuw-West': datum.label == 'K' ? 'Zuid': datum.label == 'M' ? 'Oost': datum.label == 'N' ? 'Noord': datum.label == 'T' ? 'Zuidoost': 'nee'"
          }
        },
        "opacity": {
          "condition": {"selection": "gebiedcode15", "value": 1},
          "value": 0.2
        }
      }
    },
    {
      "transform": [
        {"pivot": "gebiedcode15", "value": "waarde", "groupby": ["jaar"]}
      ],
      "mark": "rule",
      "encoding": {
        "opacity": {
          "condition": {"value": 0.3, "selection": "hover"},
          "value": 0
        },
        "tooltip": [
          {
            "title": "Jaar",
            "field": "jaar",
            "type": "temporal",
            "format": "%Y"
          },
          {"field": "A", "type": "quantitative", "title": "Centrum"},
          {"field": "B", "type": "quantitative", "title": "Westpoort"},
          {"field": "E", "type": "quantitative", "title": "West"},
          {"field": "F", "type": "quantitative", "title": "Nieuw-West"},
          {"field": "K", "type": "quantitative", "title": "Zuid"},
          {"field": "M", "type": "quantitative", "title": "Oost"},
          {"field": "N", "type": "quantitative", "title": "Noord"},
          {"field": "T", "type": "quantitative", "title": "Zuidoost"}
        ]
      },
      "selection": {
        "hover": {
          "type": "single",
          "fields": ["jaar"],
          "nearest": true,
          "on": "mouseover",
          "empty": "none",
          "clear": "mouseout"
        }
      }
    }
  ],
  "config": {
    "title": {
      "font": "'Avenir Next W01', sans-serif",
      "fontSize": 20,
      "anchor": "start",
      "offset": 32,
      "subtitleFontSize": 16
    },
    "axis": {
      "labelFont": "'Avenir Next W01', sans-serif",
      "labelFontSize": 16,
      "domain": false,
      "titleFont": "'Avenir Next W01', sans-serif",
      "titleFontSize": 16,
      "labelFontWeight": "bold",
      "titleFontWeight": "normal",
      "labelAngle": 0,
      "ticks": false,
      "title": null,
      "labelPadding": 12
    },
    "axisY": {
      "titleAngle": 0,
      "titleX": 0,
      "titleY": 7,
      "titleAlign": "left",
      "titleFontWeight": "bold"
    },
    "legend": {
      "labelFont": "'Avenir Next W01', sans-serif",
      "titleFont": "'Avenir Next W01', sans-serif",
      "labelFontSize": 16,
      "titleFontSize": 16,
      "title": null
    },
    "view": {"stroke": null},
    "padding": {"left": 0, "top": 20, "right": 0, "bottom": 20},
    "locale": {
      "number": {
        "decimal": ".",
        "thousands": ",",
        "grouping": [3],
        "currency": ["", " €"]
      },
      "time": {
        "dateTime": "%a %e %B %Y %X",
        "date": "%d-%m-%Y",
        "time": "%H:%M:%S",
        "periods": ["AM", "PM"],
        "days": [
          "zondag",
          "maandag",
          "dinsdag",
          "woensdag",
          "donderdag",
          "vrijdag",
          "zaterdag"
        ],
        "shortDays": ["zo", "ma", "di", "wo", "do", "vr", "za"],
        "months": [
          "januari",
          "februari",
          "maart",
          "april",
          "mei",
          "juni",
          "juli",
          "augustus",
          "september",
          "oktober",
          "november",
          "december"
        ],
        "shortMonths": [
          "jan",
          "feb",
          "mrt",
          "apr",
          "mei",
          "jun",
          "jul",
          "aug",
          "sep",
          "okt",
          "nov",
          "dec"
        ]
      }
    }
  }
}